<?xml version="1.0" encoding="UTF-8"?>
<svg width="59px" height="86px" viewBox="0 0 59 86" version="1.1" xmlns="http://www.w3.org/2000/svg" xmlns:xlink="http://www.w3.org/1999/xlink">
    <!-- Generator: Sketch 62 (91390) - https://sketch.com -->
    <title>value2</title>
    <desc>Created with Sketch.</desc>
    <g id="Page-1" stroke="none" stroke-width="1" fill="none" fill-rule="evenodd">
        <g id="02" transform="translate(-520.000000, -1442.000000)" fill="#FFFFFF" fill-rule="nonzero">
            <g id="Group-12" transform="translate(50.000000, 1108.000000)">
                <g id="Group-11" transform="translate(0.000000, 120.000000)">
                    <g id="Group-8" transform="translate(335.000000, 0.000000)">
                        <g id="value2" transform="translate(135.000000, 214.000000)">
                            <path d="M48.7284504,75.4670013 C45.8194376,75.1903757 44.6402493,73.5107515 43.3920354,71.7322951 C42.3184774,70.2032723 41.2093606,68.6224802 39.0821154,68.1398235 C36.4873784,67.5494451 34.6974177,68.3317358 32.9665472,69.0889263 C32.2020358,69.4235961 31.420791,69.764541 30.5161365,70.0249561 L30.5161365,48.7906781 L36.142773,43.3245785 C37.8365162,43.3156888 46.6069575,42.9909545 52.2372545,37.3611805 C58.3585748,31.240383 58.2090193,21.4089337 58.1990838,20.993211 C58.1839191,20.3223027 57.644264,19.7821247 56.9728326,19.7669598 C56.9069444,19.7653912 55.3026209,19.7334928 53.0059492,20.0739149 C51.4115612,20.3102754 51.7776064,22.7931072 53.3735631,22.5567467 C54.2688049,22.4239245 55.0495269,22.3538531 55.649318,22.3167256 C55.4798914,25.0139554 54.6327584,31.4171305 50.4624585,35.5863844 C47.043597,39.0042001 42.1004191,40.1886177 38.9498163,40.5980652 L48.7838802,31.0442874 C49.9395369,29.9215747 48.1924558,28.1201097 47.0347073,29.2433454 L37.4213164,38.5827254 C37.8788728,35.429508 39.1040782,30.7781202 42.3786132,27.5030622 C43.4835467,26.3986518 44.8326845,25.4443197 46.3883763,24.6677812 C47.8295481,23.9477182 46.709973,21.7012469 45.2667093,22.421833 C43.4689049,23.3202122 41.9001401,24.4324665 40.6038174,25.7282662 C35.4310768,30.9010068 34.7366369,38.7239141 34.6514006,41.2736799 L30.5161365,45.2912867 L30.5161365,31.5358337 C32.0482969,29.9398769 37.4872045,23.7364578 37.4872045,16.137361 C37.4872045,7.48091652 30.4288087,0.634303882 30.1286516,0.347742839 C29.6428575,-0.116088665 28.8793919,-0.116088665 28.3935976,0.347742839 C28.0939636,0.634303882 21.0350447,7.48091652 21.0350447,16.137361 C21.0350447,17.5257179 21.2206819,18.9564314 21.5872499,20.3902824 C21.9862392,21.9522493 24.4183476,21.3331101 24.0188355,19.7695745 C23.7045596,18.5380941 23.5450684,17.3155033 23.5450684,16.137361 C23.5450684,10.2602449 27.4753474,5.12097132 29.2626934,3.088898 C31.0510853,5.11731083 34.9771808,10.2424657 34.9771808,16.137361 C34.9771808,20.859343 32.440488,25.103375 30.5161365,27.6432052 L30.5161365,13.6859044 C30.5161365,12.074783 28.0061128,12.0721684 28.0061128,13.6859044 L28.0061128,27.6520949 C27.618105,27.1406776 27.2065656,26.5649408 26.7955492,25.9269764 C25.923839,24.5720866 23.8117585,25.9290681 24.6855606,27.2850038 C26.0242399,29.3657089 27.3650109,30.8628336 28.0061128,31.533742 L28.0061128,57.6609975 L24.201858,53.7453604 C24.1934912,52.053709 23.86928,43.2832677 18.237937,37.6519249 C12.1171396,31.5311273 2.28359871,31.6812058 1.8694448,31.6906185 C1.19853634,31.7057832 0.658358343,32.2464841 0.64319365,32.9168697 C0.633780994,33.3325924 0.483702458,43.1640416 6.60502292,49.284839 C11.7788093,54.4581026 19.6017166,55.1520195 22.1520053,55.2372558 L28.0066358,61.2634044 L28.0066358,70.405643 C26.9085003,70.325636 25.9996626,69.7331657 24.8968209,69.0136256 C22.5185734,67.4610714 20.0854191,66.5658296 17.2464777,67.4636859 C14.636576,68.2899021 13.3036487,70.4228994 12.2243385,72.7791841 C11.2893547,74.8206701 10.673876,75.9846936 8.90849259,76.1682392 C5.62245318,76.5107527 3.18563846,77.6444468 1.6655053,79.5384689 C-0.197664303,81.8576263 0.0753007122,84.4534092 0.0873279427,84.5626998 C0.160013946,85.1964808 0.696008699,85.6749541 1.33449595,85.6749541 L9.51560455,85.6749541 C11.1277719,85.6749541 11.1298636,83.1649303 9.51560455,83.1649303 L2.66794613,83.1649303 C2.78717213,82.5729831 3.05072462,81.8210217 3.62175515,81.1098483 C4.70734029,79.7575731 6.57364762,78.9355403 9.16786171,78.6651898 C12.4455344,78.323722 13.5881181,75.829386 14.5058455,73.8245044 C15.2776778,72.1401739 16.1054628,70.4736227 17.9895492,69.8612816 C20.1021526,69.1741626 21.7770705,69.9737097 23.5246746,71.1157705 C24.9878092,72.0706254 26.6459937,73.1530731 28.9677656,72.8858602 C31.1148818,72.6379953 32.6334462,71.9744078 33.9726484,71.3887356 C35.5774948,70.6869748 36.7362891,70.1797409 38.5267727,70.5870967 C39.6531459,70.8422824 40.3287605,71.7364785 41.3374764,73.1739899 C42.7153749,75.1365149 44.4300348,77.5790816 48.4910441,77.9660436 C54.1851375,78.5083134 55.4783226,80.5712391 55.8260656,83.1649303 L16.3763361,83.1649303 C14.7652146,83.1649303 14.7626001,85.6749541 16.3763361,85.6749541 L57.1898451,85.6749541 C57.8963121,85.6749541 58.4767552,85.0673191 58.4427652,84.3608521 C58.2545134,80.4028583 56.9529615,76.2508607 48.7284504,75.4670013 Z M8.3798188,47.510566 C4.22468374,43.3559538 3.36970687,36.9454578 3.19557401,34.2435217 C5.89907867,34.4176546 12.3090519,35.2726315 16.463664,39.4272438 C19.8820026,42.8461052 21.0664201,47.7892832 21.4763907,50.939886 L11.921044,41.1058221 C11.4383873,40.6090465 10.6440695,40.5975423 10.146771,41.080199 C9.6499955,41.5633785 9.63796827,42.3582194 10.1211478,42.8549949 L19.4552986,52.4615878 C16.2978979,52.0008939 11.6433726,50.7735969 8.3798188,47.510566 L8.3798188,47.510566 Z" id="Shape"></path>
                            <path d="M18.7556295,74.8489079 C17.1408476,74.8489079 17.138233,77.3589316 18.7556295,77.3589316 C20.3709343,77.3589316 20.3735489,74.8489079 18.7556295,74.8489079 Z" id="Path"></path>
                            <path d="M31.7131042,78.5255698 C30.0977992,78.5255698 30.0951846,81.0355935 31.7131042,81.0355935 C33.328409,81.0355935 33.3310236,78.5255698 31.7131042,78.5255698 Z" id="Path"></path>
                            <path d="M38.5419374,73.9735372 C36.9266326,73.9735372 36.924018,76.4835609 38.5419374,76.4835609 C40.1567193,76.4835609 40.159334,73.9735372 38.5419374,73.9735372 Z" id="Path"></path>
                        </g>
                    </g>
                </g>
            </g>
        </g>
    </g>
</svg>