<?xml version="1.0" encoding="UTF-8"?>
<svg width="24px" height="41px" viewBox="0 0 24 41" version="1.1" xmlns="http://www.w3.org/2000/svg" xmlns:xlink="http://www.w3.org/1999/xlink">
    <!-- Generator: Sketch 62 (91390) - https://sketch.com -->
    <title>fb</title>
    <desc>Created with Sketch.</desc>
    <g id="Page-1" stroke="none" stroke-width="1" fill="none" fill-rule="evenodd">
        <g id="02" transform="translate(-1215.000000, -8007.000000)" fill="#FFFFFF" fill-rule="nonzero">
            <g id="Group-42" transform="translate(50.000000, 7944.000000)">
                <g id="fb" transform="translate(1165.000000, 63.000000)">
                    <path d="M14.3999997,40.9599991 L7.84062478,40.9599991 C6.74499985,40.9599991 5.85374987,40.0687491 5.85374987,38.9731241 L5.85374987,24.1781244 L2.02687499,24.1781244 C0.931249979,24.1781244 0.0399999991,23.286562 0.0399999991,22.1912495 L0.0399999991,15.8515621 C0.0399999991,14.7559372 0.931249979,13.8646872 2.02687499,13.8646872 L5.85374987,13.8646872 L5.85374987,10.6899998 C5.85374987,7.54218735 6.84218737,4.86406237 8.71187485,2.94562489 C10.5899998,1.0184375 13.2146872,0 16.3021872,0 L21.304687,0.00812495982 C22.398437,0.00999999978 23.2881244,0.90124998 23.2881244,1.99499996 L23.2881244,7.88124982 C23.2881244,8.97687484 22.397187,9.86812474 21.3018746,9.86812474 L17.9337496,9.86937482 C16.9065621,9.86937482 16.6449996,10.0753123 16.5890621,10.1384373 C16.4968747,10.2431247 16.3871872,10.5390622 16.3871872,11.3562497 L16.3871872,13.8643747 L21.0487495,13.8643747 C21.399687,13.8643747 21.739687,13.9509372 22.0318745,14.1140622 C22.662187,14.4662497 23.054062,15.1321872 23.054062,15.8518747 L23.051562,22.191562 C23.051562,23.286562 22.160312,24.1778119 21.064687,24.1778119 L16.3871872,24.1778119 L16.3871872,38.9731241 C16.3871872,40.0687491 15.4956246,40.9599991 14.3999997,40.9599991 L14.3999997,40.9599991 Z M8.25499982,38.5587491 L13.9856246,38.5587491 L13.9856246,23.1031244 C13.9856246,22.371562 14.5809372,21.776562 15.3121872,21.776562 L20.650312,21.776562 L20.6524995,16.2659372 L15.3118747,16.2659372 C14.5806246,16.2659372 13.9856246,15.6709372 13.9856246,14.9393747 L13.9856246,11.3562497 C13.9856246,10.4181247 14.0809372,9.35124979 14.7890621,8.54937485 C15.6446872,7.57999983 16.9931246,7.46812479 17.9331246,7.46812479 L20.8868746,7.46687487 L20.8868746,2.40874995 L16.3003121,2.40124995 C11.3384373,2.40124995 8.25499982,5.57749988 8.25499982,10.6899998 L8.25499982,14.9393747 C8.25499982,15.6706246 7.65999983,16.2659372 6.92874985,16.2659372 L2.44124995,16.2659372 L2.44124995,21.776562 L6.92874985,21.776562 C7.65999983,21.776562 8.25499982,22.371562 8.25499982,23.1031244 L8.25499982,38.5587491 Z" id="Shape"></path>
                </g>
            </g>
        </g>
    </g>
</svg>