<?xml version="1.0" encoding="UTF-8"?>
<svg width="48px" height="46px" viewBox="0 0 48 46" version="1.1" xmlns="http://www.w3.org/2000/svg" xmlns:xlink="http://www.w3.org/1999/xlink">
    <!-- Generator: Sketch 62 (91390) - https://sketch.com -->
    <title>icn_reduce</title>
    <desc>Created with Sketch.</desc>
    <g id="Page-1" stroke="none" stroke-width="1" fill="none" fill-rule="evenodd">
        <g id="02" transform="translate(-805.000000, -6247.000000)" fill="#FFFFFF" fill-rule="nonzero">
            <g id="Group-27" transform="translate(50.000000, 6149.000000)">
                <g id="right" transform="translate(675.000000, 0.000000)">
                    <g id="Group-43" transform="translate(80.000000, 70.000000)">
                        <g id="icn_reduce" transform="translate(0.000000, 28.000000)">
                            <path d="M47.2000007,0.0520000008 L4,0.0520000008 C3.55817225,0.0520000008 3.20000005,0.410172206 3.20000005,0.852000013 L3.20000005,3.30000005 L0.800000012,3.30000005 C0.358172205,3.30000005 0,3.65817225 0,4.10000006 L0,28.1000004 C0,28.5418282 0.358172205,28.9000004 0.800000012,28.9000004 L30.2971005,28.9000004 L28.6064004,34.9761005 C28.3623272,34.8683655 28.1110132,34.7778443 27.8543004,34.7052005 C25.4108472,34.024447 22.81489,35.0705655 21.526174,37.2553081 C20.2374581,39.4400507 20.5776423,42.2181133 22.355436,44.0273503 C24.1332298,45.8365873 26.904902,46.2254194 29.1119004,44.9752007 C30.4073663,44.2464823 31.3564996,43.0286998 31.7468005,41.5945006 L33.5760005,35.0095005 L35.4046005,41.5925006 C36.0716932,44.0151602 38.2717847,45.6961446 40.7846006,45.7031205 C42.9702252,45.7088903 44.9595938,44.4428634 45.8799332,42.4604498 C46.8002725,40.4780362 46.4834645,38.1413623 45.0684989,36.4755711 C43.6535333,34.8097798 41.3988811,34.1191604 39.2937006,34.7067005 C39.0381668,34.779104 38.7880208,34.869325 38.5451006,34.9767005 L36.8519005,28.9000004 L44,28.9000004 C44.4418285,28.9000004 44.8000007,28.5418282 44.8000007,28.1000004 L44.8000007,25.6520004 L47.2000007,25.6520004 C47.6418285,25.6520004 48,25.2938282 48,24.8520004 L48,0.852000013 C48,0.410172206 47.6418285,0.0520000008 47.2000007,0.0520000008 Z M1.60000002,4.90000007 L3.20000005,4.90000007 L3.20000005,24.8520004 C3.20000005,25.2938282 3.55817225,25.6520004 4.00000006,25.6520004 L30.1946004,25.6520004 L30.5352005,26.9854004 C30.4912904,27.0881665 30.4528369,27.1931793 30.4200005,27.3000004 L1.60000002,27.3000004 L1.60000002,4.90000007 Z M38.4877006,7.0369001 L39.5938006,9.01190013 L35.3519005,25.6491004 C34.9198813,25.3353607 34.4158201,25.1354488 33.8862005,25.0678004 L38.4877006,7.0369001 Z M41.2231006,9.09790014 C41.2738928,8.8990105 41.2462892,8.68820659 41.1460006,8.50910013 L40.9304006,8.12410012 C41.599023,8.71113875 42.3679829,9.17285349 43.2004006,9.48710014 L43.2004006,16.1227002 C41.1081693,17.0814641 39.4298644,18.7597689 38.4711006,20.8520003 L38.2265006,20.8520003 L41.2231006,9.09790014 Z M34.4000005,16.5849002 L34.4000005,16.1000002 L32.8200005,16.1000002 C33.0945978,15.5966346 33.299794,15.0584148 33.4300005,14.5000002 L34.4000005,14.5000002 L34.4000005,12.9000001 L33.5964005,12.9000001 C33.5849958,12.3586821 33.5046828,11.8210216 33.3574005,11.3000002 L34.4000005,11.3000002 L34.4000005,9.70000014 L32.8000005,9.70000014 L32.8000005,9.94690015 C31.3886907,7.39138717 28.4269093,6.11477706 25.6000022,6.84350069 C22.7730951,7.57222432 20.7975755,10.121578 20.7975755,13.0409002 C20.7975755,15.9602224 22.7730951,18.5095761 25.6000022,19.2382997 C28.4269093,19.9670233 31.3886907,18.6904132 32.8000005,16.1349002 L32.8000005,17.7000003 L34.1154005,17.7000003 L33.7070005,19.3000003 L32.8000005,19.3000003 L32.8000005,20.8520003 L12.7293002,20.8520003 C11.7705363,18.7597689 10.0922315,17.0814641 8.00000012,16.1227002 L8.00000012,9.58130014 C9.03846685,9.10656912 9.98341411,8.44950902 10.7900002,7.64130011 C11.5864704,6.8488069 12.2350472,5.92047374 12.7052002,4.90000007 L37.3824006,4.90000007 L34.4000005,16.5849002 Z M32.0000005,13.0409002 C32.0000005,15.691867 29.8509672,17.8409003 27.2000004,17.8409003 C24.5490336,17.8409003 22.4000003,15.691867 22.4000003,13.0409002 C22.4000003,10.3899334 24.5490336,8.24090012 27.2000004,8.24090012 C29.8497108,8.24393104 31.9969696,10.3911898 32.0000005,13.0409002 L32.0000005,13.0409002 Z M30.2046005,41.1679006 C29.8255334,42.54836 28.7374687,43.6208927 27.3517022,43.9800741 C25.9659357,44.3392555 24.4938766,43.9302897 23.4919731,42.9077685 C22.4900697,41.8852474 22.1111698,40.4051643 22.4985003,39.0270006 C22.8437418,37.7748564 23.7768588,36.7691232 24.9996704,36.3311867 C26.2224821,35.8932501 27.581931,36.077926 28.6436004,36.8262005 C28.8562484,36.9758121 29.1283401,37.0127496 29.3731777,36.9252437 C29.6180154,36.8377378 29.8050554,36.6367047 29.8747004,36.3862005 L31.9247005,29.0186004 C31.9603239,28.8878728 31.9621819,28.750242 31.9301005,28.6186004 C31.8975814,28.4951936 31.880121,28.3683039 31.8781005,28.2407004 C31.8778393,27.4001947 32.5279617,26.7027747 33.3664173,26.6441058 C34.2048729,26.5854368 34.9457852,27.1855225 35.0625782,28.0178741 C35.1793713,28.8502257 34.6322238,29.631048 33.8100005,29.8054004 C33.5999561,29.8511065 33.4169658,29.9790304 33.3019005,30.1606004 C33.2514292,30.2395682 33.2153388,30.3268487 33.1953005,30.4184005 L32.8053005,31.8059005 L30.2046005,41.1679006 Z M37.7791006,36.9254006 C38.0238513,37.0129316 38.2958811,36.9759672 38.5084006,36.8263005 C39.8124187,35.9124727 41.5344307,35.8597373 42.8919233,36.6920583 C44.249416,37.5243794 44.983457,39.0829974 44.760485,40.6596483 C44.5375129,42.2362992 43.4000581,43.5302479 41.8650006,43.9535007 C40.843082,44.2384746 39.7497378,44.104592 38.8267734,43.5814625 C37.903809,43.058333 37.2272771,42.1890627 36.9468006,41.1659006 L34.4068005,32.0213005 L34.6303005,31.2254005 C35.0113784,31.0772121 35.3604379,30.8571912 35.6585005,30.5773005 L37.2775006,36.3868005 C37.3472865,36.6371533 37.5343388,36.8380034 37.7791006,36.9254006 L37.7791006,36.9254006 Z M43.2000006,27.3000004 L36.5820005,27.3000004 L37.0020006,25.6520004 L43.2000006,25.6520004 L43.2000006,27.3000004 Z M46.4000007,24.0520004 L37.4100006,24.0520004 L37.8180006,22.4520003 L39.0000006,22.4520003 C39.3292397,22.4519906 39.6248518,22.2502728 39.7449006,21.9437003 C40.5584219,19.8592427 42.207243,18.2104216 44.2917007,17.3969003 C44.5982731,17.2768514 44.8000001,16.9812394 44.8000001,16.652 L44.8000001,8.90000013 C44.7999566,8.53523749 44.5531806,8.21669078 44.2000007,8.12550012 C43.2790006,7.88720012 42.3600006,7.32870011 41.5413006,6.5103001 C40.7689792,5.7431153 40.1653047,4.8231623 39.7689006,3.80930006 C39.6491728,3.50233444 39.353489,3.30017073 39.0240006,3.30000005 L12.1760002,3.30000005 C11.8463657,3.30000597 11.5504811,3.50219841 11.4307002,3.80930006 C11.034296,4.8231623 10.4306216,5.7431153 9.65830014,6.5103001 C8.87616247,7.2934666 7.93965651,7.90536256 6.9083001,8.30710012 C6.60172764,8.42714893 6.40000979,8.72276102 6.4000001,9.05200013 L6.4000001,16.652 C6.40000979,16.9812394 6.60172764,17.2768514 6.9083001,17.3969003 C8.99275774,18.2104216 10.6415789,19.8592427 11.4551002,21.9437003 C11.575149,22.2502728 11.8707611,22.4519906 12.2000002,22.4520003 L32.9025005,22.4520003 L32.4942005,24.0520004 L4.80000007,24.0520004 L4.80000007,1.65200002 L46.4000007,1.65200002 L46.4000007,24.0520004 Z" id="Shape"></path>
                            <path d="M27.5800004,38.0100006 C26.7043864,37.5157289 25.613488,37.6196726 24.8469735,38.2704106 C24.0804591,38.9211487 23.8008424,39.9807138 24.1464502,40.9249382 C24.492058,41.8691626 25.3896155,42.4978549 26.3951004,42.5000006 C26.6134155,42.4997989 26.830695,42.469994 27.0410004,42.4114006 C27.9761182,42.1515614 28.6626926,41.354089 28.7806655,40.3907385 C28.8986384,39.4273881 28.4247852,38.4878085 27.5800004,38.0100006 L27.5800004,38.0100006 Z M27.0954004,40.4930006 C26.9360937,40.7746327 26.6228237,40.9325709 26.3016651,40.8931704 C25.9805065,40.8537698 25.7147046,40.6247894 25.6282004,40.3130006 L25.6282004,40.3130006 C25.5714297,40.1085448 25.5982112,39.8899105 25.7026523,39.7052023 C25.8070933,39.520494 25.9806373,39.3848448 26.1851004,39.3281006 C26.2551496,39.3084272 26.3275414,39.2983354 26.4003004,39.2981006 C26.6847218,39.2984536 26.9475694,39.4497911 27.0906726,39.6955901 C27.2337757,39.9413891 27.2356138,40.2446851 27.0955004,40.4922006 L27.0954004,40.4930006 Z" id="Shape"></path>
                            <path d="M39.6177006,42.1880006 C39.9765581,42.3921291 40.3822483,42.4996332 40.7951006,42.5000006 C41.0134157,42.4997989 41.2306953,42.469994 41.4410006,42.4114006 C42.5442347,42.1050674 43.277446,41.0620782 43.1922347,39.9202794 C43.1070234,38.7784806 42.2271217,37.8558764 41.090639,37.7166911 C39.9541563,37.5775058 38.8776162,38.2605041 38.5193833,39.3479942 C38.1611504,40.4354842 38.6209968,41.6245875 39.6177006,42.1881006 L39.6177006,42.1880006 Z M40.1023006,39.7051006 C40.2063147,39.5199837 40.3800524,39.3841622 40.5848006,39.3279006 C40.6548498,39.3082272 40.7272416,39.2981354 40.8000006,39.2979006 C41.2136686,39.2985548 41.5586152,39.6144697 41.5955417,40.0264868 C41.6324683,40.4385039 41.3491948,40.8107223 40.9422357,40.8849242 C40.5352765,40.9591261 40.1388643,40.7108365 40.0280006,40.3123006 L40.0280006,40.3123006 C39.9708112,40.1080903 39.9975595,39.8894962 40.1023006,39.7051006 L40.1023006,39.7051006 Z" id="Shape"></path>
                            <rect id="Rectangle" x="32.8000005" y="6.5000001" width="1.60000002" height="1.60000002"></rect>
                        </g>
                    </g>
                </g>
            </g>
        </g>
    </g>
</svg>